﻿Lista rankingowa na dzień 12-11-2014

Lp.  Imię i nazwisko                Miasto               Rank.  Skalpy Gry
---- ------------------------------ -------------------- ------ ------ ----
   1 Dariusz Kosz                   Nysa                 160.55  31789  198
   2 Bartosz Morawski               Gliwice              156.66  30862  197
   3 Mariusz Skrobosz               Warszawa             153.73  25673  167
   4 Michał Alabrudziński           Włocławek            153.30  30506  199
   5 Krzysztof Mówka                Warszawa             150.73  27885  185
   6 Rafał Lenartowski              Gdynia               150.29  28706  191
   7 Dawid Adamczyk                 Wodzisław Śląski     150.25  19983  133
   8 Przemysław Herdzina            Kraków               149.77   8986   60
   9 Dominik Urbacki                Pruszków             149.63  29029  194
  10 Stanisław Rydzik               Warszawa             149.21  29096  195
  11 Marek Reda                     Dębówka              148.39  28195  190
  12 Tomasz Zwoliński               Skierdy              148.18  28599  193
  13 Paweł Zaręba                   Warszawa             147.54  20656  140
  14 Kazimierz Merklejn             Szczecin             146.79  28037  191
  15 Dariusz Puton                  Ruda Śląska          146.79  15266  104
  16 Kamil Górka                    Kraków               146.57  28435  194
  17 Mateusz Borsuk                 Reda                 146.30  23262  159
  18 Krzysztof Obremski             Legnica              146.18  28943  198
  19 Mariusz Wrześniewski           Kraków               146.05  29211  200
  20 Dawid Pikul                    Poznań               145.57  27659  190
  21 Mirosław Uglik                 Warszawa             145.40  28062  193
  22 Jakub Szymczak                 Łódź                 145.28  24843  171
  23 Piotr Pietuchowski             Białystok            144.81  27948  193
  24 Miłosz Wrzałek                 Warszawa             144.76  27939  193
  25 Jan Mrozowski                  Kraków               144.33  26845  186
  26 Robert Duczemiński             Gorzów Wielkopolski  143.62  12639   88
  27 Karol Wyrębkiewicz             Łódź                 143.26  21489  150
  28 Aleksander Puchalski           Włocławek            143.25   6876   48
  29 Paweł Jackowski                Warszawa             143.20  27208  190
  30 Jarosław Borowski              Bielsk Podlaski      143.11   5438   38
  31 Jakub Zaryński                 Świnoujście          142.77  11279   79
  32 Łukasz Bobowski                Suchedniów           142.57  26232  184
  33 Justyna Górka                  Kraków               142.42  27629  194
  34 Paweł Janaś                    Wałcz                141.65  11190   79
  35 Andrzej Oleksiak               Ostróda              141.60   8496   60
  36 Łukasz Tuszyński               Chłopowo             141.40  27290  193
  37 Grzegorz Łukasik               Konojady             141.13  28085  199
  38 Tomasz Ciejka                  Kraków               139.95  17354  124
  39 Krzysztof Usakiewicz           Warszawa             139.95  10636   76
  40 Andrzej Rakoczy                Kraków               139.63   4887   35
  41 Maciej Rzychoń                 Katowice             139.34   9057   65
  42 Wojciech Zemło                 Łódź                 138.86  18330  132
  43 Robert Kamiński                Warszawa             138.61  22178  160
  44 Grzegorz Kurowski              Warszawa             138.49  27005  195
  45 Robert Kuszpit                 Biała Podlaska       138.30  13553   98
  46 Maciej Czupryniak              Milanówek            138.07  22368  162
  47 Bogusław Szyszka               Oława                137.89  26751  194
  48 Wojciech Usakiewicz            Warszawa             137.86   4963   36
  49 Marek Herzig                   Gorzów Wielkopolski  137.81   9233   67
  50 Rafał Dąbrowski                Ostróda              137.78   4960   36
  51 Andrzej Grabiński              Suchedniów           137.22   6861   50
  52 Kacper Zegadło                 Warszawa             136.92  26015  190
  53 Maciej Grąbczewski             Szczecin             136.85  15464  113
  54 Szymon Płachta                 Warszawa             136.80  26128  191
  55 Karol Waniek                   Wrocław              136.40  16777  123
  56 Adam Klimont                   Wałcz                135.68   5970   44
  57 Maciej Kuczyński               Gdynia               135.66  10039   74
  58 Piotr Domański                 Lublin               135.48  10838   80
  59 Irena Sołdan                   Sopot                134.99  26864  199
  60 Daniel Mundyk                  Jelenia Góra         134.86   4855   36
  61 Kamil Kister                   Puławy               134.83  26831  199
  62 Dariusz Kuć                    Stargard Szczecińsk  134.49  22729  169
  63 Marek Salamon                  Bytom                134.35  12898   96
  64 Małgorzata Sulejewska          Kraków               134.27  25109  187
  65 Grzegorz Koczkodon             Wałcz                134.17  26029  194
  66 Przemysław Rybicki             Otwock               133.68  10293   77
  67 Andrzej Kwiatkowski            Warszawa             133.60  26186  196
  68 Marcin Mroziuk                 Warszawa             133.35   7334   55
  69 Małgorzata Deszczyńska         Warszawa             133.34  26401  198
  70 Mikołaj Cieplik                Ostrzeszów           133.19   9057   68
  71 Alicja Grąbczewska             Szczecin             133.06  10512   79
  72 Radosław Jachna                Łódź                 133.06  14104  106
  73 Tomasz Suchanek                Wrocław              132.96  15158  114
  74 Adam Jurkowski                 Gliwice              132.80   6640   50
  75 Dominik Piasecki               Słupsk               132.70  10749   81
  76 Artur Irzyk                    Kraków               131.49  10914   83
  77 Agnieszka Krupka               Krosno               131.33  15497  118
  78 Dawid Buzowicz                 Rzeszów              131.32   8273   63
  79 Marek Dudkiewicz               Milanówek            131.25  25200  192
  80 Maciej Perzyński               Piła                 131.24  22049  168
  81 Michał, Piotr Waszkiewicz      Białystok            131.02  15722  120
  82 Leszek Stecuła                 Bytom                130.88   9685   74
  83 Michał Szorc                   Białystok            130.81   6279   48
  84 Krzysztof Jaworski             Warszawa             130.76  13207  101
  85 Andrzej Przybyłowicz           Warszawa             130.56   4700   36
  86 Leszek Kacprzyk                Katowice             130.35  18771  144
  87 Dariusz Maciejuk               Warszawa             130.34  13425  103
  88 Natalia Woźniak                Dziwnówek            130.32  24630  189
  89 Sławomir Piotrowski            Deszczno             130.27   9249   71
  90 Rafał Wesołowski               Warszawa             130.25  24877  191
  91 Michał Rogalewicz              Poznań               130.05  14045  108
  92 Joanna Jewtuch                 Warszawa             129.87  24676  190
  93 Maciej Sancewicz               Gorzów Wielkopolski  129.86  25843  199
  94 Łucja  Kodzis                  Bydgoszcz            129.61  12702   98
  95 Krzysztof Sporczyk             Piaseczno            129.58  22158  171
  96 Dorota Maciejuk                Warszawa             129.57   7515   58
  97 Piotr Broda                    Sandomierz           129.50  25382  196
  98 Jolanta Chłopińska             Wałcz                129.47  25377  196
  99 Mikołaj Przybyłowicz           Warszawa             129.37  22122  171
 100 Szymon Dąbrowski               Warszawa             129.30  24438  189
 101 Janusz Krupiński               Bytom                129.22  23776  184
 102 Mariusz Grodek                 Kraków               129.08   4647   36
 103 Artur Koszel                   Warszawa             129.00  23478  182
 104 Paweł Mazurek                  Polanica-Zdrój       128.98  16381  127
 105 Grzegorz Święcki               Białystok            128.93   5157   40
 106 Łukasz Baranowski              Gdynia               128.90  24491  190
 107 Arkadiusz Łydka                Jaworzno             128.69  12740   99
 108 Barbara Obremska               Wrocław              128.46  25435  198
 109 Arkadiusz Biegun               Kraków               128.44   8092   63
 110 Czesław Grajewski              Białystok            128.37  25288  197
 111 Marta Bajorek                  Warszawa             128.34  24513  191
 112 Ireneusz Moralewicz            Goleniów             128.32  25279  197
 113 Waldemar Czerwoniec            Warszawa             128.21  12821  100
 114 Ireneusz Kurzok                Mikołów              128.19   4615   36
 115 Krzysztof Kałuża               Sosnowiec            128.19   4743   37
 116 Małgorzata Szczygieł           Radwanice            127.91  25070  196
 117 Wojciech Chodakiewicz          Białystok            127.84   7798   61
 118 Jakub Błażejewski              Poznań               127.68  15322  120
 119 Mariusz Sylwestrzuk            Warszawa             127.68  24515  192
 120 Rafał Matczak                  Milanówek            127.54  10841   85
 121 Grzegorz Pukniel               Łódź                 127.03  25024  197
 122 Juliusz Czupryniak             Warszawa             126.96  24249  191
 123 Bronisław Parada               Polanica-Zdrój       126.77  17875  141
 124 Michał Makowski                Marki                126.59   4684   37
 125 Bartłomiej Pawlak              Sochaczew            126.59   6203   49
 126 Jerzy Matyasik                 Kraków               126.57  23922  189
 127 Michał Szymkowski              Wrocław              126.36   9477   75
 128 Ryszard Dębski                 Biała Podlaska       126.26   9091   72
 129 Natalia Ogierman               Katowice             126.06  18909  150
 130 Weronika Rudnicka              Szczecin             125.90   6169   49
 131 Michał Mikołajczyk             Gdańsk               125.73   6035   48
 132 Łukasz Sornek                  Mikołów              125.65  15958  127
 133 Agnieszka Goniowska            Wrocław              125.65   6031   48
 134 Mateusz Królikowski            Wrocław              125.62   5653   45
 135 Andrzej Rechowicz              Katowice             125.52  24350  194
 136 Tomasz Łapka                   Opole                124.75   4491   36
 137 Patryk Wolniewicz              Szczecin             124.69   4489   36
 138 Bogdan Kozłowski               Białystok            124.62  16949  136
 139 Krzysztof Gibas                Kraków               124.46  22154  178
 140 Radosław Więch                 Warszawa             124.10  13030  105
 141 Mariola Osajda-Matczak         Milanówek            124.02  18355  148
 142 Marcin Ceglarek                Kraków               124.02  20091  162
 143 Michał Puchowski               Strzelce Opolskie    124.01   8309   67
 144 Grzegorz Kwiecień              Kraków               123.89   8053   65
 145 Monika Gawron-Cieślik          Szczecin             123.79  14979  121
 146 Agata Kuć                      Stargard Szczeciński 123.72  23506  190
 147 Krzysztof Bonda                Białystok            123.68   8905   72
 148 Tomasz Lempart                 Kraków               123.48  18645  151
 149 Leokadia Litwinowicz           Gliwice              123.42   4443   36
 150 Ryszard Kaczmarek              Leszno               123.39   4442   36
 151 Bogusław Puchalski             Włocławek            123.29   4315   35
 152 Zbigniew Wietecki              Gorzów Wielkopolski  123.15  24384  198
 153 Marek Charytoniuk              Biała Podlaska       123.12  10096   82
 154 Dariusz Białobrzewski          Gdynia               122.88   7373   60
 155 Jacek Wandzel                  Ząbkowice Śląskie    122.79   5894   48
 156 Michał Ozimiński               Łódź                 122.78   4420   36
 157 Paweł Zbrowski                 Gdynia               122.74   5646   46
 158 Krzysztof Kodzis               Bydgoszcz            122.62  10545   86
 159 Tomasz Górka                   Kraków               122.42   9304   76
 160 Marek Rogalski                 Warszawa             122.23  20291  166
 161 Zbigniew Rybak                 Warszawa             122.09  23686  194
 162 Dorota Zielińska               Piaseczno            121.79   8647   71
 163 Dariusz Ulatowski              Tuchola              121.78  23139  190
 164 Krzysztof Bukowski             Milanówek            121.73   9860   81
 165 Walenty Siemaszko              Lipiany              121.72  10590   87
 166 Mariusz Orzeł                  Nowe Miasto Lubawsk  121.63  17637  145
 167 Anita Bruska                   Gdynia               121.56  17504  144
 168 Anna Krynicka                  Warszawa             121.49  17494  144
 169 Andrzej Kroc                   Łódź                 121.48  22474  185
 170 Ryszard Żydaczewski            Lubin                121.14   9207   76
 171 Dorota Stachowska              Wydartowo I          120.85  23928  198
 172 Michał Kolaj                   Ostróda              120.82   9303   77
 173 Aleksandra Kaczanowska         Szczecin             120.70   4466   37
 174 Paweł Maciejczuk               Białystok            120.60  14231  118
 175 Dorota Rudzińska               Warszawa             120.48  23133  192
 176 Stanisław Gasik                Warszawa             120.42   7225   60
 177 Marta Sztajnert                Wisła                120.36   7342   61
 178 Ewa Radzikowska                Gliwice              120.35  15645  130
 179 Ewa Szałas                     Katowice             120.10   7446   62
 180 Magdalena Kupczyńska           Szczecin             119.90   8513   71
 181 Edward Stefaniak               Biała Podlaska       119.90   7074   59
 182 Katarzyna Ślusarska            Milanówek            119.75  14011  117
 183 Agnieszka Walas                Kraków               119.71   5746   48
 184 Beata Piotrowska               Łódź                 119.14   9650   81
 185 Bożena Guział                  Racibórz             119.11  10124   85
 186 Małgorzata Szmuksta            Szczecin             118.97  11659   98
 187 Agnieszka Biegańska            Białystok            118.94  15105  127
 188 Patrycja Kuszpit               Biała Podlaska       118.76  11401   96
 189 Damian Łupiński                Konojady             118.69   5697   48
 190 Dorota Kuć                     Stargard Szczecińsk  118.66  21358  180
 191 Rafał Stachowski               Police               118.34  20472  173
 192 Marta Ćwiek                    Radomsko             118.18  10873   92
 193 Patryk Gadus                   Pszczew              118.06   4014   34
 194 Jacek Pietruszka               Kraków               117.73   7417   63
 195 Teresa Zalewska                Racibórz             117.71  15655  133
 196 Adam Janicki                   Wrocław              117.31  17714  151
 197 Dariusz Nawrocki               Bydgoszcz            117.30   7038   60
 198 Maurycy Machnio                Lipiany              117.26  10436   89
 199 Marta Świątkowska              Wrocław              117.15  23196  198
 200 Urszula Solarska               Łódź                 117.03  23054  197
 201 Konrad Sowula                  Kraków               116.99  10997   94
 202 Maria Krzyżanowska             Władysławowo         116.72  15057  129
 203 Jerzy Luter                    Bytom                116.69  21705  186
 204 Agnieszka Matus                Milanówek            116.64  16446  141
 205 Ryszard Korpalski              Wójtowice            116.59  21453  184
 206 Jerzy Krzyżewski               Piasutno             116.55  22145  190
 207 Jarosław Karp                  Jędrzejów            116.12   8361   72
 208 Zdzisław Figurski              Gryfów Śląski        116.06   3714   32
 209 Joanna Ostrowska               Warszawa             116.04  19842  171
 210 Jarosław Olek                  Warszawa             115.53   7625   66
 211 Ala Białobrzewska              Gdynia               115.35  10728   93
 212 Dariusz Jarosławski            Ełk                  115.31  16489  143
 213 Anna Biegańska                 Białystok            115.24  13137  114
 214 Zofia Górka                    Łęczna               115.24  11754  102
 215 Dariusz Sowula                 Kraków               115.09  11164   97
 216 Katarzyna Kowalska             Katowice             115.02   6326   55
 217 Michał Jakubiec                Siemianowice Śląskie 114.86   4020   35
 218 Paweł Morga                    Warszawa             114.83  11827  103
 219 Bogusław Książek               Szczecin             114.77   7460   65
 220 Dariusz Socha                  Warszawa             114.76   8148   71
 221 Grażyna Wesołowska             Łódź                 114.73  15718  137
 222 Agnieszka Piotrowicz           Gdańsk               114.71  16174  141
 223 Teresa Pawlik                  Lubin                114.53   3436   30
 224 Przemysław Pawlic              Wrocław              113.96   6154   54
 225 Piotr Adamczyk                 Tarnów               113.89   6036   53
 226 Jerzy Tatarczuk                Warszawa             113.69   6594   58
 227 Zdzisław Szota                 Warszawa             113.57   7382   65
 228 Sławomir Wolski                Wrocław              113.42  21890  193
 229 Monika Siemaszko               Lipiany              112.98  20336  180
 230 Renata Andracka                Zwola                112.93  22586  200
 231 Mieczysław Pastuszak           Gdynia               112.88  21447  190
 232 Sławomir Długosz               Ostróda              112.78  16241  144
 233 Aleksandra Brzeska             Piastów              112.78   7218   64
 234 Dorota Ostrowska               Białystok            112.50  17438  155
 235 Marianna Kozłowska             Białystok            112.31  16510  147
 236 Jakub Onoszko                  Gdynia               111.40  21388  192
 237 Artur Wawrzynowski             Żukowo               111.27   9347   84
 238 Iza Kraj                       Warszawa             111.19   8006   72
 239 Ziemowit Pazda                 Wrocław              111.18  15677  141
 240 Maciej Śliwa                   Zabrze               110.98   5882   53
 241 Piotr Potoczek                 Nowy Sącz            110.93   8320   75
 242 Anna Niedzielko                Szczecin             110.74  15836  143
 243 Maria Pokorska                 Warszawa             110.64  20690  187
 244 Lucyna Śniadach                Rumia                110.53  21111  191
 245 Czesława Pawłowska             Wrocław              110.29   7720   70
 246 Łukasz Przyszlak               Świnoujście          110.07  14199  129
 247 Stanisław Olsztyn              Olsztyn              109.86   3845   35
 248 Sylwia Łada                    Inowrocław           109.77  21185  193
 249 Paweł Wdziękoński              Świnoujście          109.52   8433   77
 250 Tomasz A. Praga                Białystok            109.47  10290   94
 251 Leszek Kilian                  Jaworzno             109.43   9630   88
 252 Andrzej Bednaruk               Gdańsk               109.43  15758  144
 253 Dominika Worona                Police               109.33  14213  130
 254 Mariusz Rostkowski             Sochaczew            108.92   4030   37
 255 Paulina Brzuchalska            Bydgoszcz            108.84   3374   31
 256 Marcin Radwański               Nowa Wieś Wrocławska 108.82  17737  163
 257 Mariusz Kubicki                Inowrocław           108.78   3916   36
 258 Joanna Brychcy                 Katowice             108.72   5762   53
 259 Ewelina Gruda                  Białystok            108.69   4239   39
 260 Dorota Gwiazdoń                Nowa Wieś            108.66   5107   47
 261 Bartłomiej Dalecki             Rumia                108.65   5215   48
 262 Robert Wagner                  Wrocław              108.22   7792   72
 263 Tomasz Lewiński                Wejherowo            107.85   5177   48
 264 Krzysztof Zawadzki             Sampława             107.82  21025  195
 265 Wojciech Gołęcki               Inowrocław           107.80  20698  192
 266 Jacek Nowak                    Szczecin             107.72   7433   69
 267 Marcin Stachowski              Wydartowo I          107.67  21104  196
 268 Laura Pisula                   Wrocław              107.58  11511  107
 269 Józef Wietecki                 Gorzów Wielkopolski  107.27  13838  129
 270 Sławomir Zabawa                Wałcz                107.08  10922  102
 271 Zbigniew Kniotek               Bytom                106.77   6940   65
 272 Waldemar Kudliński             Bydgoszcz            106.49  17358  163
 273 Józef Burzyński                Ełk                  106.16  16561  156
 274 Łukasz Moskal                  Kurzętnik            106.12   5094   48
 275 Krzysztof Borodziuk            Kostrzyn             106.07   7213   68
 276 Elżbieta Zębek                 Olsztyn              105.74   3701   35
 277 Agnieszka Kozak                Gdynia               105.59  20168  191
 278 Marek Szczepanik               Reda                 105.57   3695   35
 279 Anna Arana                     Warszawa             105.20   9678   92
 280 Paweł Brylski                  Kraków               105.10   6621   63
 281 Joanna Nawrocka                Bydgoszcz            104.54   5959   57
 282 Katarzyna Dębska               Ostróda              104.47  17342  166
 283 Halina Mrozek                  Warszawa             104.27   7403   71
 284 Monika Krzysztofek             Wejherowo            103.70   4874   47
 285 Maciej Dąbrowski               Warszawa             103.64  20107  194
 286 Julita Dygnas                  Jelenia Góra         103.46   4242   41
 287 Maciej Pietrasik               Nowogard             103.38  20159  195
 288 Katarzyna Bogusławska          Piastów              103.38  14576  141
 289 Jadwiga Jakubiec               Siemianowice Śląskie 103.36   3721   36
 290 Andrzej Burczyk                Gdynia               103.06   3710   36
 291 Jarosław Paprocki              Bydgoszcz            102.58   3693   36
 292 Michał Landowski               Police               102.40  19968  195
 293 Katarzyna  Szachowicz          Uniszewo             101.90   8458   83
 294 Janusz Pawłowski               Wrocław              101.55   3351   33
 295 Maciej Sylwestrzuk             Ciechanowiec         100.98   6059   60
 296 Mariusz Michalski              Inowrocław           100.96   5351   53
 297 Hanna Siemionow                Białystok            100.71   3525   35
 298 Monika Szczyrzyca              Jaworzno             100.05   5903   59
 299 Agnieszka Antos                Racibórz              99.70   5384   54
 300 Lidia Żywna                    Gdynia                99.50  10249  103
 301 Krystyna Drynkowska            Świnoujście           99.38   4770   48
 302 Sylwia Buks                    Warszawa              98.67  11840  120
 303 Agnieszka Dawid                Kraków                98.56   8772   89
 304 Eugeniusz Tuszyński            Nowe Miasto Lubawsk   97.81   4108   42
 305 Beata Kiżewska                 Świnoujście           96.96   6884   71
 306 Sylwia Kozłowska               Białystok             96.57  10236  106
 307 Kinga Stecuła                  Bytom                 96.40   6266   65
 308 Marek Horyń                    Ełk                   96.38   4530   47
 309 Aneta Szczyrzyca               Jaworzno              96.30   7126   74
 310 Dawid Rykaczewski              Jaworzno              96.19   6733   70
 311 Anna Lenartowska               Gdynia                95.37   8583   90
 312 Jan Pawłowski                  Warszawa              95.23   6761   71
 313 Zygmunt Skwarek                Katowice              95.14   7231   76
 314 Barbara Wiśniewska             Gdańsk                95.05   7699   81
 315 Agnieszka Wiśniewska           Inowrocław            95.01  14631  154
 316 Waldemar Dębski                Ostróda               94.49   5386   57
 317 Bernadeta Kudlińska            Bydgoszcz             92.02  15276  166
 318 Andrzej Klich                  Jaworzno              91.30  10773  118
 319 Michał Dąbrowski               Warszawa              90.94   6184   68
 320 Jadwiga Szczurowska            Świnoujście           90.54   3169   35
 321 Paulina Naplocha               Racibórz              90.09   7387   82
 322 Aleksandra Perzyna             Biała Podlaska        90.06   2972   33
 323 Adam Graczyk                   Nowe Miasto Lubawsk   89.60   3136   35
 324 Adam Kędzior                   Lublin                87.59   4292   49
 325 Katarzyna Rachaus              Łódź                  86.68   3814   44
 326 Magdalena Pokorska             Warszawa              83.51   3591   43
 327 Artur Kwiatkowski              Radomsko              83.39   5837   70
 328 Jacek Dec                      Pszczew               83.06   2741   33
 329 Radosław Słowicki              Warszawa              80.47   3943   49
 330 Teresa Balewska                Reda                  79.44   5243   66
 331 Albert Połomski                Ostrów Wielkopolski   78.85   2681   34
 332 Marcin Kurowski                Racibórz              75.86   4779   63
 333 Alicja Puchowska               Strzelce Opolskie     73.75   4720   64
 334 Paweł Jankowski                Nowe Miasto Lubawsk   72.82   4078   56
 335 Piotr Ozimek                   Sochaczew             68.03   2381   35
 336 Jacek Łukaszuk                 Biała Podlaska        66.88   2207   33
 337 Mirosław Dejna                 Sampława              64.34  12160  189
 338 Oliwier Antos                  Racibórz              58.76   1939   33




Poczekalnia na dzień 12-11-2014

Lp.  Imię i nazwisko                Miasto               Rank.  Skalpy Gry
---- ------------------------------ -------------------- ------ ------ ----
   1 Mikołaj Fidziński              Dębica               142.10   4121   29
   2 Danuta Langiewicz              Ostróda              111.17   3224   29
   3 Maciej Bukowski                Szczecin             108.76   3154   29
   4 Joanna Wilk                    Racibórz             101.43   2840   28
   5 Andrzej Słapiński              Warszawa             126.19   3407   27
   6 Justyna Czupryńska             Świnoujście           75.85   2048   27
   7 Joanna Suchanek                Wrocław              121.73   3165   26
   8 Ryszard Pliszka                Szczecin              91.77   2386   26
   9 Grzegorz Grzeszczuk            Racibórz             115.88   2897   25
  10 Katarzyna Polak                Warszawa             112.88   2822   25
  11 Beata Marynowicz               Racibórz             111.64   2791   25
  12 Magdalena Kublik               Warszawa             111.20   2780   25
  13 Łukasz Sobierajski             Warszawa             106.96   2674   25
  14 Tomasz Sehnal                  Warszawa             105.60   2640   25
  15 Gabriela Jurgaś                Jaworzno             103.76   2594   25
  16 Michał Dreczka                 Poznań                94.00   2350   25
  17 Marcin  Baniewski              Pełczyce             142.25   3414   24
  18 Agnieszka Kaczkowska           Gdańsk               129.88   3117   24
  19 Elżbieta Szuba                 Bytom Odrzański      124.62   2991   24
  20 Krystyna Augustyniak           Łódź                 124.21   2981   24
  21 Michał Burak                   Wrocław              123.46   2963   24
  22 Dawid Brandys                  Chrzanów             122.71   2945   24
  23 Leszek Dobrowolski             Wrocław              122.25   2934   24
  24 Jan Lisiewski                  Piasutno             120.96   2903   24
  25 Sławomir Nosek                 Mielec               119.38   2865   24
  26 Marcela Wołowiec               Gdynia               119.25   2862   24
  27 Dawid Mierzchała               Ostrów Wielkopolski  118.50   2844   24
  28 Lidia Szpakowska               Jaworzno             117.83   2828   24
  29 Szymon Figurski                Gryfów Śląski        116.58   2798   24
  30 Mariusz Makuch                 Zator                115.92   2782   24
  31 Wojciech Gonet                 Wrocław              115.58   2774   24
  32 Andrzej Kraska                 Wrocław              114.96   2759   24
  33 Łukasz Wojciechowski           Łomża                114.67   2752   24
  34 Dawid Podżerek                 Kraków               114.54   2749   24
  35 Małgorzata Jóźwiak             Iława                113.29   2719   24
  36 Wiesław Kożyczkowski           Miłobądz             109.04   2617   24
  37 Dariusz Zębek                  Olsztyn              109.00   2616   24
  38 Natalia Połomska               Ostrów Wlkp          108.25   2598   24
  39 Justyna Nieznalska             Jejkowice            107.00   2568   24
  40 Rafał Świątek                  Wrocław              106.62   2559   24
  41 Magda Sarad                    Świnoujście          103.83   2492   24
  42 Michał Garnowski               Pasłęk               102.21   2453   24
  43 Grażyna Smereka                Racibórz             100.42   2410   24
  44 Kinga Bilska                   Ostrów Wielkopolski   97.17   2332   24
  45 Teresa Prystupa                Zajączkowo            89.71   2153   24
  46 Maksymilian Piątek             Warszawa              67.96   1631   24
  47 Danuta Połomska                Ostrów Wlkp.         106.52   2450   23
  48 Janina Grajewska               Choroszcz            104.83   2411   23
  49 Bożena Mileńko                 Świnoujście           96.83   2227   23
  50 Konrad Pajączek                Milanówek             91.61   2107   23
  51 Karol Lenartowski              Gdynia                90.39   2079   23
  52 Paulina Ostrowska              Białystok             89.00   2047   23
  53 Zuzanna Dąbrowska              Świętajno             85.00   1955   23
  54 Krzysztof Murawski             Ciechanowiec          83.74   1926   23
  55 Konrad Łukaszewicz             Wrocław               81.43   1873   23
  56 Łukasz Pawlak                  Sochaczew             80.96   1862   23
  57 Emilia Spanialska              Świętajno             80.35   1848   23
  58 Hanna Góźdź                    Ostrów Wielkopolski   77.91   1792   23
  59 Jędrzej Zawojski               Modzurów              77.74   1788   23
  60 Zuzanna Rokicka                Świętajno             69.57   1600   23
  61 Zdzisław Parnicki              Słupsk                94.64   2082   22
  62 Michał Śliwiński               Szczecin              90.18   1984   22
  63 Michał Dulat                   Kraków                85.41   1879   22
  64 Agnieszka Stefańska            Koźmice Wielkie       81.05   1783   22
  65 Maciej Rosiński                Ostrów Wielkopolski   80.77   1777   22
  66 Tadeusz Kondej                 Świnoujście           75.32   1657   22
  67 Miłosz Śliwiński               Szczecin              73.68   1621   22
  68 Radosław Smolik                Jaworzno              67.95   1495   22
  69 Sebastian Orzelski             Bielsk Podlaski      116.81   2453   21
  70 Julia Solarska                 Łódź                  76.48   1606   21
  71 Jarosław Michalak              Łódź                 122.60   2452   20
  72 Adam Słapiński                 Warszawa             113.10   2262   20
  73 Jolanta Sylwestrzuk            Warszawa              97.95   1959   20
  74 Maria Uryga                    Kraków                83.10   1662   20
  75 Kamil Nawrocki                 Bydgoszcz            136.42   2592   19
  76 Łukasz Szałkiewicz             Wrocław              124.37   2363   19
  77 Andrzej Ciołek                 Bielsk Podlaski      107.68   2046   19
  78 Piotr Latoszek                 Warszawa              95.11   1807   19
  79 Elżbieta Święcka               Białystok             94.11   1788   19
  80 Agnieszka Pachała              Poznań                95.82   1629   17
  81 Michał Lasecki                 Warszawa              87.65   1490   17
  82 Maciej Kuć                     Stargard Szczeciński  81.00   1377   17
  83 Dorota Buśko                   Naterki               80.65   1371   17
  84 Wiktoria Browarska             Wałcz                 57.71    981   17
  85 Jacek Gasik                    Warszawa             130.60   1959   15
  86 Jan Kozłowski                  Kraków               129.00   1935   15
  87 Marek Syczuk                   Warszawa             128.53   1928   15
  88 Waldemar Wypchał               Kraków               100.13   1502   15
  89 Leszek Katyński                Słupsk                91.40   1371   15
  90 Michał Trumpus                 Wrocław              133.71   1872   14
  91 Dominik Małocha                Demblin               91.93   1287   14
  92 Jolanta Hoffmann-Derlacka      Warszawa             121.46   1579   13
  93 Maciej Kutera                  Warszawa             119.46   1553   13
  94 Witold Wojnowski               Warszawa             111.69   1452   13
  95 Kamil Jagliński                Ostrowiec Świętokrz  106.62   1386   13
  96 Dariusz Buławko                Warszawa             104.31   1356   13
  97 Michał Derlacki                Warszawa             101.08   1314   13
  98 Radosław Studniarski           Bydgoszcz             99.77   1297   13
  99 Dominik Peter                  Nowe Miasto Lubawsk   58.31    758   13
 100 Jędrzej Florek                 Bydgoszcz            160.92   1931   12
 101 Marzena Zawierska              Warszawa             148.25   1779   12
 102 Adam Weremczuk                 Łódź/Londyn          142.75   1713   12
 103 Adam Szukalski                 Coventry             141.58   1699   12
 104 Karol Rembiałkowski            Warszawa             136.17   1634   12
 105 Maciej Nawrocki                Babimost             133.83   1606   12
 106 Filip Warzecha                 Gdynia               133.83   1606   12
 107 Maciej Michalski               Łódź                 130.67   1568   12
 108 Tomasz Sienkiewicz             Białogard            129.58   1555   12
 109 Jacek Baltyn                   Suchedniów           128.58   1543   12
 110 Jarosław Żuliński              Szczecin             123.25   1479   12
 111 Grzegorz Kulgawczuk            Biała Podlaska       122.42   1469   12
 112 Dorota Patera                  Legnica              120.75   1449   12
 113 Beata Wiączkowska              Wrocław              120.00   1440   12
 114 Sławomir Kucia                 Krosno               119.92   1439   12
 115 Wojciech Morawski              Gliwice              119.42   1433   12
 116 Michał Gawroński               Siemianowice Śląski  118.58   1423   12
 117 Zbigniew Lewandowski           Słupsk               118.08   1417   12
 118 Jacek Jerzyński                Toruń                117.42   1409   12
 119 Kamil Lesisz                   Warszawa             117.25   1407   12
 120 Izabela Wyłoga                 Elbląg               117.17   1406   12
 121 Donata Stuczyńska              Bydgoszcz            115.42   1385   12
 122 Krystian Wandzlewicz           Nowe Miasto Lubawsk  115.33   1384   12
 123 Sławomir Radzymiński           Kraków               114.92   1379   12
 124 Grzegorz Miecugow              Warszawa             114.75   1377   12
 125 Agnieszka Koralewska           Ostrów Wielkopolski  114.25   1371   12
 126 Agata Kopta                    Wodzisław Śląski     113.33   1360   12
 127 Michał Musielak                Bydgoszcz            112.83   1354   12
 128 Jolanta Kosmowska              Warszawa             112.67   1352   12
 129 Waldemar Denarczyk             Kielce               110.67   1328   12
 130 Zbigniew Skrzypczyk            Jawor                108.67   1304   12
 131 Joanna Regdos                  Kraków               108.42   1301   12
 132 Mateusz Machowski              Rzeszów              107.92   1295   12
 133 Tomasz  Niklewicz              Ełk                  106.33   1276   12
 134 Adrianna Marynowicz            Racibórz             105.67   1268   12
 135 Michał Grzymała                Łomża                104.83   1258   12
 136 Mariola Andrusikiewicz         Zator                104.67   1256   12
 137 Bartłomiej Najman              Białystok            104.00   1248   12
 138 Agata Pastusiak                Gorzów Wielkopolski  103.58   1243   12
 139 Piotr Kozak                    Racibórz             101.58   1219   12
 140 Hanna Mazowiecka               Świnoujście          100.83   1210   12
 141 Alicja Bielecka                Poznań               100.58   1207   12
 142 Alicja Cuellar-Tarczewska      Łomża                 99.50   1194   12
 143 Beata Kowaluk-Jagielska        Police                99.33   1192   12
 144 Bożena Lisiewska               Piasutno              99.17   1190   12
 145 Liliana Dąbrowska              Warszawa              99.08   1189   12
 146 Tadeusz Sokólski               Białystok             99.08   1189   12
 147 Daniel Brzozowski              Trzebiatów            99.00   1188   12
 148 Grzegorz Kasprowicz            Grabowo               97.83   1174   12
 149 Joanna Pawlińska               Bielany Wrocławskie   97.67   1172   12
 150 Honorata Rutkowska             Świętajno             97.67   1172   12
 151 Stefan Kurszel                 Białystok             97.33   1168   12
 152 Tomasz Szczodry                Łomża                 97.25   1167   12
 153 Sebastian Imielski             Szczytno              96.83   1162   12
 154 Paulina Siedlarz               Nowy Sącz             96.83   1162   12
 155 Justyna  Molik                 Lublin                96.67   1160   12
 156 Zuzanna Kulesza                Ostrów Wielkopolski   96.17   1154   12
 157 Waldemar Stankiewicz           Łomża                 94.83   1138   12
 158 Maria Kożyczkowska             Miłobądz              93.67   1124   12
 159 Jolanta Raszewska-Marczak      Żagań                 93.25   1119   12
 160 Teresa Pietracha               Wejherowo             92.25   1107   12
 161 Joanna Kozłowska               Gdańsk                90.58   1087   12
 162 Michał Majszyk                 Warszawa              90.58   1087   12
 163 Radosław Pastusiak             Gorzów Wielkopolski   90.58   1087   12
 164 Przemysław Anielski            Świętajno             90.50   1086   12
 165 Katarzyna Matuszek             Bielsko-Biała         90.08   1081   12
 166 Michał Furman                  Kraków                89.83   1078   12
 167 Tomasz Mandes                  Warszawa              89.83   1078   12
 168 Tomasz Banasiak                Ostrów Wielkopolski   89.75   1077   12
 169 Paula Szałata                  Ostrów Wielkopolski   89.50   1074   12
 170 Jacek Barski                   Racibórz              89.42   1073   12
 171 Katarzyna Turbiarz             Rybnik                89.33   1072   12
 172 Jerzy Augustyniak              Łódź                  89.17   1070   12
 173 Joanna Jędraszczyk-Kałwak      Racibórz              88.50   1062   12
 174 Michał Toporek                 Jaworzno              88.50   1062   12
 175 Marcin Obuszyński              Warszawa              87.50   1050   12
 176 Tomasz Majewski                Ząbki                 87.33   1048   12
 177 Agnieszka Lisiak- Świetlikowska Białystok             86.83   1042   12
 178 Brygida Pindelska              Świnoujście           86.67   1040   12
 179 Szymon Jankowski               Nowe Miasto Lubawsk   85.75   1029   12
 180 Michał Nowak                   Nakło nad Notecią     85.00   1020   12
 181 Łukasz Rotowski                Szczęsne              79.58    955   12
 182 Monika Czekała                 Racibórz              79.08    949   12
 183 Magdalena Mitrofaniuk          Warszawa              74.83    898   12
 184 Magdalena Sulejewska           Kraków                72.33    868   12
 185 Halina Kowalska                Kurzętnik             70.92    851   12
 186 Kamila Hoffmann-Derlacka       Warszawa              68.92    827   12
 187 Paweł Żak                      Polanica-Zdrój        60.83    730   12
 188 Jadwiga Kapłan-Majtka          Kłodzko               60.17    722   12
 189 Rafał Błaszkiewicz             Milanówek            113.64   1250   11
 190 Bartłomiej Sylwestrzuk         Warszawa             113.18   1245   11
 191 Lech Szymczak                  Mniszki              104.36   1148   11
 192 Natalia Sowała                 Łowicz               104.18   1146   11
 193 Zygmunt Sołtysiak              Piastów              103.27   1136   11
 194 Wojciech Kwaśniak              Częstochowa          102.82   1131   11
 195 Agata Stachowska               Wydartowo I           98.64   1085   11
 196 Adriana Gąbka                  Deszczno              97.27   1070   11
 197 Marcin Grześkiewicz            Szczecin              94.45   1039   11
 198 Iwona Skubis-Galus             Dąbrowa Górnicza      93.09   1024   11
 199 Małgorzata Nowicka             Biała Podlaska        92.36   1016   11
 200 Małgorzata Lipiec              Świnoujście           91.36   1005   11
 201 Łukasz Łysko                   Miastko               91.00   1001   11
 202 Katarzyna Pawłowska            Płoty                 90.91   1000   11
 203 Joanna Zborowska               Wrocław               90.82    999   11
 204 Hanna Dąbrowska                Zgierz                90.73    998   11
 205 Agnieszka Forysiak             Stargard Szczeciński  89.36    983   11
 206 Iwona Wieluńska                Kołobrzeg             88.27    971   11
 207 Martyna Szymańska              Ustka                 86.00    946   11
 208 Roksana Statkiewicz            Jaworzno              84.18    926   11
 209 Dominik Ulejczyk               Będzin                83.91    923   11
 210 Andrzej Pikul                  Poznań                83.73    921   11
 211 Piotr Sołowianiuk              Białystok             83.45    918   11
 212 Karolina Kurkowska             Opole                 82.55    908   11
 213 Aleksandra Celuch              Będzin                81.18    893   11
 214 Kinga Szydłowska               Świętajno             79.91    879   11
 215 Monika Rogowska                Oława                 79.18    871   11
 216 Kasper Kamiński                Gdańsk                78.18    860   11
 217 Rafał Stachura                 Zator                 78.09    859   11
 218 Zofia  Michałowska             Ełk                   77.27    850   11
 219 Zuzanna Molak                  Warszawa              76.73    844   11
 220 Maurycy Grzech                 Stargard Szczeciński  76.45    841   11
 221 Kamila Antosz-Lasecka          Warszawa              75.00    825   11
 222 Jadwiga Dziurdzia              Kraków                74.27    817   11
 223 Paweł Dzierżyński              Milanówek             73.82    812   11
 224 Krystyna Michałowska           Odolanów              73.55    809   11
 225 Tomasz Kniaziuk                Kraków                73.45    808   11
 226 Michał Kurdelski               Bydgoszcz             73.45    808   11
 227 Anna Strugała                  Świnoujście           73.36    807   11
 228 Monika Kowalik                 Kraków                72.91    802   11
 229 Tomasz Łukaszuk                Biała Podlaska        72.45    797   11
 230 Justyna Drop                   Koszalin              72.18    794   11
 231 Kinga Buczkowska               Gdynia                71.27    784   11
 232 Dawid Gackowski                Rumia                 71.00    781   11
 233 Przemysław Wądołowski          Białystok             70.82    779   11
 234 Adam Motyl                     Jaskółki              70.36    774   11
 235 Barbara Pęska                  Nowy Dwór Mazowiecki  70.18    772   11
 236 Justyna Kurowska               Inowrocław            65.91    725   11
 237 Marek Popczyk                  Tychy                 65.91    725   11
 238 Beata Kurowska                 Inowrocław            65.73    723   11
 239 Małgorzata Studniarska         Bydgoszcz             65.45    720   11
 240 Lech Lenckowski                Dębień                65.00    715   11
 241 Jadwiga Żelazny                Kraków                64.82    713   11
 242 Iwona Mackiewicz               Kodeń                 64.45    709   11
 243 Dariusz Bzdyra                 Polanica-Zdrój        64.36    708   11
 244 Teresa Dziemiańczuk            Białystok             63.55    699   11
 245 Jolanta Bednarska              Łódź                  61.91    681   11
 246 Marek Wilczek                  Świnoujście           60.64    667   11
 247 Patrycja Rutowska              Ełk                   56.00    616   11
 248 Andrzej Choiński               Gródek                54.82    603   11
 249 Julia Kujawa                   Ostrów Wielkopolski   54.18    596   11
 250 Szymon Malec                   Stargard Szczeciński  53.45    588   11
 251 Jan Sawoniuk                   Wrocław               52.36    576   11
 252 Eugeniusz Wróblewski           Inowrocław           139.90   1399   10
 253 Krystyna Kurowska              Inowrocław            77.00    770   10
 254 Tamara Szczepańska             Świnoujście           77.00    770   10
 255 Teresa Kulesza                 Ełk                   56.70    567   10
 256 Tomasz Kłosiński               Bydgoszcz            116.89   1052    9
 257 Tomasz M. Lempart              Bytom                 58.89    530    9
 258 Seweryn Lipski                 Ciechanowiec          55.56    500    9
 259 Michał Wykrętowicz             Warszawa             114.12    913    8
 260 Piotr Kabot                    Katowice              98.62    789    8
 261 Łukasz Pudło                   Łuków                 87.00    696    8
 262 Marzena Psik                   Murowana Goślina      80.12    641    8
 263 Arkadiusz Florczak             Szczecin              79.50    636    8
 264 Adam Pietryga                  Racibórz              79.50    636    8
 265 Artur Pydych                   Gdańsk                78.88    631    8
 266 Kamila Zacharuk                Zabrze                72.25    578    8
 267 Dariusz Niedzielski            Warszawa              66.12    529    8
 268 Agata Jagodzińska              Warszawa              61.12    489    8
 269 Cezary Pawlonka                Wrocław               58.62    469    8
 270 Anna Stefańska                 Łódź                 117.29    821    7
 271 Magdalena Podlaska             Warszawa             116.43    815    7
 272 Adam Paszek                    Tarnowskie Góry      107.14    750    7
 273 Grażyna Kula                   Gdańsk               103.71    726    7
 274 Andrzej Tyczyno                Bydgoszcz            103.43    724    7
 275 Maciej Mizgier                 Gdańsk               102.00    714    7
 276 Olga Posmyk                    Stargard Szczeciński  99.14    694    7
 277 Mirosława Jursza               Rybnik                97.29    681    7
 278 Piotr Kasprów                  Jelenia Góra          92.86    650    7
 279 Katarzyna Odrzywołek           Kraków                92.86    650    7
 280 Grażyna Kaczyńska              Łódź                  92.00    644    7
 281 Marcin Białecki                Białystok             91.14    638    7
 282 Jarosław Józik                 Brzeszcze             89.14    624    7
 283 Małgorzata Stefańczyk          Świnoujście           86.71    607    7
 284 Mateusz Zawada                 Kraków                83.86    587    7
 285 Danuta Jasiorkowska            Jasienna              78.00    546    7
 286 Kacper Szuba                   Duszniki Zdrój        74.00    518    7
 287 Anna Kiżewska                  Świnoujście           72.86    510    7
 288 Chrystian Janik                Wrocław               72.43    507    7
 289 Grzegorz Sylwestrzuk           Gródek                70.00    490    7
 290 Dariusz Rokicki                Świętajno             66.86    468    7
 291 Zuzanna Wołowiec               Gdynia                66.00    462    7
 292 Izabela Zawada                 Kraków                63.71    446    7
 293 Marcin Szczyrzyca              Jaworzno              61.00    427    7
 294 Adam Wencel                    Bydgoszcz             56.43    395    7
 295 Zuzanna Basista                Świętajno             53.00    371    7
 296 Marek Białasik                 Międzychód            50.00    350    7
 297 Bogdan Zawadzki                Białystok            108.83    653    6
 298 Jerzy Ciesielski               Łódź                  92.50    555    6
 299 Agnieszka Trumpus              Wrocław               75.67    454    6
 300 Agata Hozakowska               Warszawa              68.00    408    6
 301 Urszula Borowska               Kraków                66.83    401    6
 302 Wojciech Bartkowski            Łódź                  64.33    386    6
 303 Marta Bołbot                   Bielsk Podlaski       59.17    355    6
 304 Weronika Wasiak                Kraków                54.17    325    6
 305 Martyna Pawlak                 Ostrów Wielkopolski   53.67    322    6
 306 Piotr Szulc                    Bydgoszcz            135.60    678    5
 307 Przemysław Malinka             Ostrożnica           133.20    666    5
 308 Katarzyna Kasowska             Racibórz             130.00    650    5
 309 Marek Antosik                  Nowy Dwór Mazowieck  120.80    604    5
 310 Maciej Michalak                Łódź                 105.20    526    5
 311 Szymon Madej                   Kraków               103.40    517    5
 312 Bogna Berestecka               Szczecin              97.40    487    5
 313 Dorota Kudlińska               Bydgoszcz             84.40    422    5
 314 Jakub Madej                    Kraków                80.80    404    5
 315 Barbara Pawelczyk              Szczecin              73.20    366    5
 316 Magdalena Nocoń                Katowice              55.20    276    5
 317 Tomasz Kaczmarczyk             Warszawa             108.50    434    4
 318 Iwona Burzyńska                Warszawa              62.00    248    4
 319 Adam Starachowski              Międzyzdroje          55.75    223    4
 320 Edyta Smolik                   Jaworzno              51.25    205    4
 321 Elżbieta Zyra                  Szczytno              84.33    253    3
 322 Kacper Rzepecki                Wrocław               75.67    227    3
 323 Łukasz Majksner                Żyrardów              74.33    223    3
 324 Laura Rekowska                 Stargard Szczeciński  72.00    216    3
 325 Arkadiusz Wąsiel               Wrocław               70.33    211    3
 326 Filip Nguyen Viet              Wrocław               67.33    202    3
 327 Anna Fatyga                    Szepietowo-Wawrzyńce  62.67    188    3
 328 Łukasz Kowalczyk               Stargard Szczeciński  61.67    185    3
 329 Łukasz Pawlas                  Racibórz              60.33    181    3
 330 Małgorzata Kosakowska          Szczytno              50.00    150    3
 331 Piotr Rosół                    Warszawa             116.00    232    2
 332 Paweł Jędryka                  Chełmek              108.50    217    2
 333 Michał Czyż                    Łódź                  73.50    147    2
 334 Joanna Czarkowska              Szepietowo-Wawrzyńce  70.50    141    2
 335 Mirosław Sójka                 Ełk                   64.00    128    2
 336 Marek Kujawa                   Ostrów Wielkopolski   63.00    126    2
 337 Joanna Strączek                Legnica               57.50    115    2
 338 Monika Gorczyca                Kraków                72.00     72    1
